// Jest Snapshot v1, https://goo.gl/fbAQLP

exports[`Testing of image component handling the rendering of type => default 1`] = `
<img
  className=""
  height="100%"
  src="landing.jpg"
  width="100%"
/>
`;

exports[`Testing of image component handling the rendering of type => landing 1`] = `
<div
  className="landing-container"
>
  <div />
  <img
    className="landing-image background-image"
    height="100%"
    src="landing.jpg"
    width="100%"
  />
</div>
`;

exports[`Testing of image component handling the rendering of type => logo 1`] = `
<img
  className="image"
  height="4%"
  src="logo.png"
  width="4%"
/>
`;
